{
  "data": {
    "customer_invoices": [
      {
        "id": 158,
        "customer": {
          "id": 528,
          "first_name": "badsha",
          "last_name": "badsha",
          "email": "badsha@hotmail.com",
          "last_logged_in": null,
          "status": "active"
        },
        "invoice_number": "INV-0000158",
        "customer_service_request": {
          "id": 164,
          "service": {
            "id": 112,
            "name": "hosting",
            "description": "services",
            "image": null,
            "subscription_type": "recurring",
            "catalog_status": "active",
            "status": "active",
            "created_at": "2022-05-31T07:39:44.000000Z",
            "updated_at": "2022-05-31T07:41:56.000000Z"
          },
          "customer": {
            "id": 528,
            "first_name": "badsha",
            "last_name": "badsha",
            "email": "badsha@hotmail.com",
            "last_logged_in": null,
            "status": "active"
          },
          "is_recurring": true,
          "recurring_type": "annually",
          "status": "pending",
          "intake_form": [
            {
              "title": "afdfds",
              "description": "fdsfdsf"
            }
          ],
          "created_at": "2022-06-02T07:01:49.000000Z"
        },
        "is_paid": false,
        "paid_by": "",
        "amount": "11",
        "created_at": "2022-06-02T07:01:49.000000Z"
      },
      {
        "id": 157,
        "customer": {
          "id": 528,
          "first_name": "badsha",
          "last_name": "badsha",
          "email": "badsha@hotmail.com",
          "last_logged_in": null,
          "status": "active"
        },
        "invoice_number": "INV-0000157",
        "customer_service_request": {
          "id": 163,
          "service": {
            "id": 112,
            "name": "hosting",
            "description": "services",
            "image": null,
            "subscription_type": "recurring",
            "catalog_status": "active",
            "status": "active",
            "created_at": "2022-05-31T07:39:44.000000Z",
            "updated_at": "2022-05-31T07:41:56.000000Z"
          },
          "customer": {
            "id": 528,
            "first_name": "badsha",
            "last_name": "badsha",
            "email": "badsha@hotmail.com",
            "last_logged_in": null,
            "status": "active"
          },
          "is_recurring": true,
          "recurring_type": "annually",
          "status": "pending",
          "intake_form": [
            {
              "title": "afdfds",
              "description": "fdsfdsf"
            }
          ],
          "created_at": "2022-06-02T06:55:21.000000Z"
        },
        "is_paid": false,
        "paid_by": "",
        "amount": "11",
        "created_at": "2022-06-02T06:55:22.000000Z"
      },
      {
        "id": 156,
        "customer": {
          "id": 528,
          "first_name": "badsha",
          "last_name": "badsha",
          "email": "badsha@hotmail.com",
          "last_logged_in": null,
          "status": "active"
        },
        "invoice_number": "INV-0000156",
        "customer_service_request": {
          "id": 162,
          "service": {
            "id": 119,
            "name": "design",
            "description": "services ",
            "image": null,
            "subscription_type": "one-off",
            "catalog_status": "pending",
            "status": "pending",
            "created_at": "2022-06-01T10:21:57.000000Z",
            "updated_at": "2022-06-01T10:21:57.000000Z"
          },
          "customer": {
            "id": 528,
            "first_name": "badsha",
            "last_name": "badsha",
            "email": "badsha@hotmail.com",
            "last_logged_in": null,
            "status": "active"
          },
          "is_recurring": false,
          "recurring_type": "",
          "status": "pending",
          "intake_form": [
            {
              "title": "afdfds",
              "description": "fdsfdsf"
            }
          ],
          "created_at": "2022-06-02T06:54:21.000000Z"
        },
        "is_paid": false,
        "paid_by": "",
        "amount": "12",
        "created_at": "2022-06-02T06:54:22.000000Z"
      },
      {
        "id": 147,
        "customer": {
          "id": 479,
          "first_name": "dolly",
          "last_name": "dolly",
          "email": "dolly@hotmail.com",
          "last_logged_in": "2022-06-02 07:25:09",
          "status": "active"
        },
        "invoice_number": "INV-0000147",
        "customer_service_request": {
          "id": 153,
          "service": {
            "id": 92,
            "name": "#####",
            "description": "ddddddddd",
            "image": null,
            "subscription_type": "one-off",
            "catalog_status": "active",
            "status": "active",
            "created_at": "2022-05-16T12:16:14.000000Z",
            "updated_at": "2022-05-25T11:56:33.000000Z"
          },
          "customer": {
            "id": 479,
            "first_name": "dolly",
            "last_name": "dolly",
            "email": "dolly@hotmail.com",
            "last_logged_in": "2022-06-02 07:25:09",
            "status": "active"
          },
          "is_recurring": false,
          "recurring_type": "",
          "status": "pending",
          "intake_form": [
            {
              "title": "developing",
              "description": "aaaa"
            }
          ],
          "created_at": "2022-06-01T06:08:59.000000Z"
        },
        "is_paid": false,
        "paid_by": "",
        "amount": "11",
        "created_at": "2022-06-01T06:08:59.000000Z"
      },
      {
        "id": 146,
        "customer": {
          "id": 479,
          "first_name": "dolly",
          "last_name": "dolly",
          "email": "dolly@hotmail.com",
          "last_logged_in": "2022-06-02 07:25:09",
          "status": "active"
        },
        "invoice_number": "INV-0000146",
        "customer_service_request": {
          "id": 152,
          "service": {
            "id": 92,
            "name": "#####",
            "description": "ddddddddd",
            "image": null,
            "subscription_type": "one-off",
            "catalog_status": "active",
            "status": "active",
            "created_at": "2022-05-16T12:16:14.000000Z",
            "updated_at": "2022-05-25T11:56:33.000000Z"
          },
          "customer": {
            "id": 479,
            "first_name": "dolly",
            "last_name": "dolly",
            "email": "dolly@hotmail.com",
            "last_logged_in": "2022-06-02 07:25:09",
            "status": "active"
          },
          "is_recurring": false,
          "recurring_type": "",
          "status": "pending",
          "intake_form": [
            {
              "title": "developing",
              "description": "aaaa"
            }
          ],
          "created_at": "2022-06-01T06:07:21.000000Z"
        },
        "is_paid": false,
        "paid_by": "",
        "amount": "11",
        "created_at": "2022-06-01T06:07:21.000000Z"
      },
      {
        "id": 145,
        "customer": {
          "id": 479,
          "first_name": "dolly",
          "last_name": "dolly",
          "email": "dolly@hotmail.com",
          "last_logged_in": "2022-06-02 07:25:09",
          "status": "active"
        },
        "invoice_number": "INV-0000145",
        "customer_service_request": {
          "id": 151,
          "service": {
            "id": 92,
            "name": "#####",
            "description": "ddddddddd",
            "image": null,
            "subscription_type": "one-off",
            "catalog_status": "active",
            "status": "active",
            "created_at": "2022-05-16T12:16:14.000000Z",
            "updated_at": "2022-05-25T11:56:33.000000Z"
          },
          "customer": {
            "id": 479,
            "first_name": "dolly",
            "last_name": "dolly",
            "email": "dolly@hotmail.com",
            "last_logged_in": "2022-06-02 07:25:09",
            "status": "active"
          },
          "is_recurring": false,
          "recurring_type": "",
          "status": "pending",
          "intake_form": [
            {
              "title": "developing",
              "description": "aaaa"
            }
          ],
          "created_at": "2022-06-01T06:03:30.000000Z"
        },
        "is_paid": false,
        "paid_by": "",
        "amount": "11",
        "created_at": "2022-06-01T06:03:30.000000Z"
      },
      {
        "id": 144,
        "customer": {
          "id": 479,
          "first_name": "dolly",
          "last_name": "dolly",
          "email": "dolly@hotmail.com",
          "last_logged_in": "2022-06-02 07:25:09",
          "status": "active"
        },
        "invoice_number": "INV-0000144",
        "customer_service_request": {
          "id": 150,
          "service": {
            "id": 92,
            "name": "#####",
            "description": "ddddddddd",
            "image": null,
            "subscription_type": "one-off",
            "catalog_status": "active",
            "status": "active",
            "created_at": "2022-05-16T12:16:14.000000Z",
            "updated_at": "2022-05-25T11:56:33.000000Z"
          },
          "customer": {
            "id": 479,
            "first_name": "dolly",
            "last_name": "dolly",
            "email": "dolly@hotmail.com",
            "last_logged_in": "2022-06-02 07:25:09",
            "status": "active"
          },
          "is_recurring": false,
          "recurring_type": "",
          "status": "pending",
          "intake_form": [
            {
              "title": "developing",
              "description": "aaaa"
            }
          ],
          "created_at": "2022-06-01T06:02:21.000000Z"
        },
        "is_paid": false,
        "paid_by": "",
        "amount": "11",
        "created_at": "2022-06-01T06:02:21.000000Z"
      },
      {
        "id": 143,
        "customer": {
          "id": 513,
          "first_name": "khadija",
          "last_name": "khan",
          "email": "khadija@hotmail.com",
          "last_logged_in": null,
          "status": "active"
        },
        "invoice_number": "INV-0000143",
        "customer_service_request": {
          "id": 149,
          "service": {
            "id": 112,
            "name": "hosting",
            "description": "services",
            "image": null,
            "subscription_type": "recurring",
            "catalog_status": "active",
            "status": "active",
            "created_at": "2022-05-31T07:39:44.000000Z",
            "updated_at": "2022-05-31T07:41:56.000000Z"
          },
          "customer": {
            "id": 513,
            "first_name": "khadija",
            "last_name": "khan",
            "email": "khadija@hotmail.com",
            "last_logged_in": null,
            "status": "active"
          },
          "is_recurring": true,
          "recurring_type": "biannually",
          "status": "pending",
          "intake_form": [
            {
              "title": "Vitae enim earum tem",
              "description": "Velit tempore volup"
            }
          ],
          "created_at": "2022-05-31T12:26:02.000000Z"
        },
        "is_paid": false,
        "paid_by": "",
        "amount": "11",
        "created_at": "2022-05-31T12:26:02.000000Z"
      },
      {
        "id": 139,
        "customer": {
          "id": 479,
          "first_name": "dolly",
          "last_name": "dolly",
          "email": "dolly@hotmail.com",
          "last_logged_in": "2022-06-02 07:25:09",
          "status": "active"
        },
        "invoice_number": "INV-0000139",
        "customer_service_request": {
          "id": 145,
          "service": {
            "id": 94,
            "name": "web dev",
            "description": "aaaa",
            "image": null,
            "subscription_type": "one-off",
            "catalog_status": "active",
            "status": "active",
            "created_at": "2022-05-17T09:16:12.000000Z",
            "updated_at": "2022-05-27T07:51:12.000000Z"
          },
          "customer": {
            "id": 479,
            "first_name": "dolly",
            "last_name": "dolly",
            "email": "dolly@hotmail.com",
            "last_logged_in": "2022-06-02 07:25:09",
            "status": "active"
          },
          "is_recurring": false,
          "recurring_type": "",
          "status": "pending",
          "intake_form": [
            {
              "title": "services",
              "description": "services "
            }
          ],
          "created_at": "2022-05-31T08:32:53.000000Z"
        },
        "is_paid": false,
        "paid_by": "agency",
        "amount": "12",
        "created_at": "2022-05-31T08:32:53.000000Z"
      },
      {
        "id": 138,
        "customer": {
          "id": 479,
          "first_name": "dolly",
          "last_name": "dolly",
          "email": "dolly@hotmail.com",
          "last_logged_in": "2022-06-02 07:25:09",
          "status": "active"
        },
        "invoice_number": "INV-0000138",
        "customer_service_request": {
          "id": 144,
          "service": {
            "id": 91,
            "name": "my domain service",
            "description": "my domain service",
            "image": "https://res.cloudinary.com/saasfa/image/upload/v1652701036/service-6282376bf2855.jpg",
            "subscription_type": "one-off",
            "catalog_status": "active",
            "status": "active",
            "created_at": "2022-05-16T11:37:16.000000Z",
            "updated_at": "2022-05-25T11:56:14.000000Z"
          },
          "customer": {
            "id": 479,
            "first_name": "dolly",
            "last_name": "dolly",
            "email": "dolly@hotmail.com",
            "last_logged_in": "2022-06-02 07:25:09",
            "status": "active"
          },
          "is_recurring": false,
          "recurring_type": "",
          "status": "pending",
          "intake_form": [
            {
              "title": "services ",
              "description": "services "
            }
          ],
          "created_at": "2022-05-31T08:32:09.000000Z"
        },
        "is_paid": false,
        "paid_by": "agency",
        "amount": "100",
        "created_at": "2022-05-31T08:32:09.000000Z"
      },
      {
        "id": 137,
        "customer": {
          "id": 479,
          "first_name": "dolly",
          "last_name": "dolly",
          "email": "dolly@hotmail.com",
          "last_logged_in": "2022-06-02 07:25:09",
          "status": "active"
        },
        "invoice_number": "INV-0000137",
        "customer_service_request": {
          "id": 143,
          "service": {
            "id": 96,
            "name": "web",
            "description": "aaaa",
            "image": null,
            "subscription_type": "one-off",
            "catalog_status": "active",
            "status": "active",
            "created_at": "2022-05-19T13:02:52.000000Z",
            "updated_at": "2022-05-27T08:08:58.000000Z"
          },
          "customer": {
            "id": 479,
            "first_name": "dolly",
            "last_name": "dolly",
            "email": "dolly@hotmail.com",
            "last_logged_in": "2022-06-02 07:25:09",
            "status": "active"
          },
          "is_recurring": false,
          "recurring_type": "",
          "status": "pending",
          "intake_form": [
            {
              "title": "services ",
              "description": "services "
            }
          ],
          "created_at": "2022-05-31T08:31:00.000000Z"
        },
        "is_paid": false,
        "paid_by": "agency",
        "amount": "11",
        "created_at": "2022-05-31T08:31:00.000000Z"
      },
      {
        "id": 136,
        "customer": {
          "id": 479,
          "first_name": "dolly",
          "last_name": "dolly",
          "email": "dolly@hotmail.com",
          "last_logged_in": "2022-06-02 07:25:09",
          "status": "active"
        },
        "invoice_number": "INV-0000136",
        "customer_service_request": {
          "id": 142,
          "service": {
            "id": 92,
            "name": "#####",
            "description": "ddddddddd",
            "image": null,
            "subscription_type": "one-off",
            "catalog_status": "active",
            "status": "active",
            "created_at": "2022-05-16T12:16:14.000000Z",
            "updated_at": "2022-05-25T11:56:33.000000Z"
          },
          "customer": {
            "id": 479,
            "first_name": "dolly",
            "last_name": "dolly",
            "email": "dolly@hotmail.com",
            "last_logged_in": "2022-06-02 07:25:09",
            "status": "active"
          },
          "is_recurring": false,
          "recurring_type": "",
          "status": "pending",
          "intake_form": [
            {
              "title": "services ",
              "description": "services "
            }
          ],
          "created_at": "2022-05-31T08:26:22.000000Z"
        },
        "is_paid": false,
        "paid_by": "agency",
        "amount": "11",
        "created_at": "2022-05-31T08:26:22.000000Z"
      },
      {
        "id": 131,
        "customer": {
          "id": 479,
          "first_name": "dolly",
          "last_name": "dolly",
          "email": "dolly@hotmail.com",
          "last_logged_in": "2022-06-02 07:25:09",
          "status": "active"
        },
        "invoice_number": "INV-0000131",
        "customer_service_request": {
          "id": 137,
          "service": {
            "id": 89,
            "name": "@@@@",
            "description": "dfgggg",
            "image": null,
            "subscription_type": "one-off",
            "catalog_status": "active",
            "status": "active",
            "created_at": "2022-05-16T06:57:05.000000Z",
            "updated_at": "2022-05-25T12:00:12.000000Z"
          },
          "customer": {
            "id": 479,
            "first_name": "dolly",
            "last_name": "dolly",
            "email": "dolly@hotmail.com",
            "last_logged_in": "2022-06-02 07:25:09",
            "status": "active"
          },
          "is_recurring": false,
          "recurring_type": "",
          "status": "pending",
          "intake_form": [
            {
              "title": "services",
              "description": "services "
            }
          ],
          "created_at": "2022-05-31T08:18:52.000000Z"
        },
        "is_paid": false,
        "paid_by": "agency",
        "amount": "12",
        "created_at": "2022-05-31T08:18:52.000000Z"
      },
      {
        "id": 130,
        "customer": {
          "id": 479,
          "first_name": "dolly",
          "last_name": "dolly",
          "email": "dolly@hotmail.com",
          "last_logged_in": "2022-06-02 07:25:09",
          "status": "active"
        },
        "invoice_number": "INV-0000130",
        "customer_service_request": {
          "id": 136,
          "service": {
            "id": 89,
            "name": "@@@@",
            "description": "dfgggg",
            "image": null,
            "subscription_type": "one-off",
            "catalog_status": "active",
            "status": "active",
            "created_at": "2022-05-16T06:57:05.000000Z",
            "updated_at": "2022-05-25T12:00:12.000000Z"
          },
          "customer": {
            "id": 479,
            "first_name": "dolly",
            "last_name": "dolly",
            "email": "dolly@hotmail.com",
            "last_logged_in": "2022-06-02 07:25:09",
            "status": "active"
          },
          "is_recurring": false,
          "recurring_type": "",
          "status": "pending",
          "intake_form": [
            {
              "title": "services ",
              "description": "services "
            }
          ],
          "created_at": "2022-05-31T08:18:26.000000Z"
        },
        "is_paid": false,
        "paid_by": "agency",
        "amount": "12",
        "created_at": "2022-05-31T08:18:26.000000Z"
      },
      {
        "id": 129,
        "customer": {
          "id": 479,
          "first_name": "dolly",
          "last_name": "dolly",
          "email": "dolly@hotmail.com",
          "last_logged_in": "2022-06-02 07:25:09",
          "status": "active"
        },
        "invoice_number": "INV-0000129",
        "customer_service_request": {
          "id": 135,
          "service": {
            "id": 89,
            "name": "@@@@",
            "description": "dfgggg",
            "image": null,
            "subscription_type": "one-off",
            "catalog_status": "active",
            "status": "active",
            "created_at": "2022-05-16T06:57:05.000000Z",
            "updated_at": "2022-05-25T12:00:12.000000Z"
          },
          "customer": {
            "id": 479,
            "first_name": "dolly",
            "last_name": "dolly",
            "email": "dolly@hotmail.com",
            "last_logged_in": "2022-06-02 07:25:09",
            "status": "active"
          },
          "is_recurring": false,
          "recurring_type": "",
          "status": "pending",
          "intake_form": [
            {
              "title": "services",
              "description": "services"
            }
          ],
          "created_at": "2022-05-31T08:17:05.000000Z"
        },
        "is_paid": false,
        "paid_by": "agency",
        "amount": "12",
        "created_at": "2022-05-31T08:17:05.000000Z"
      },
      {
        "id": 128,
        "customer": {
          "id": 479,
          "first_name": "dolly",
          "last_name": "dolly",
          "email": "dolly@hotmail.com",
          "last_logged_in": "2022-06-02 07:25:09",
          "status": "active"
        },
        "invoice_number": "INV-0000128",
        "customer_service_request": {
          "id": 134,
          "service": {
            "id": 89,
            "name": "@@@@",
            "description": "dfgggg",
            "image": null,
            "subscription_type": "one-off",
            "catalog_status": "active",
            "status": "active",
            "created_at": "2022-05-16T06:57:05.000000Z",
            "updated_at": "2022-05-25T12:00:12.000000Z"
          },
          "customer": {
            "id": 479,
            "first_name": "dolly",
            "last_name": "dolly",
            "email": "dolly@hotmail.com",
            "last_logged_in": "2022-06-02 07:25:09",
            "status": "active"
          },
          "is_recurring": false,
          "recurring_type": "",
          "status": "pending",
          "intake_form": [
            {
              "title": "services ",
              "description": "services"
            }
          ],
          "created_at": "2022-05-31T08:16:45.000000Z"
        },
        "is_paid": false,
        "paid_by": "agency",
        "amount": "12",
        "created_at": "2022-05-31T08:16:45.000000Z"
      },
      {
        "id": 127,
        "customer": {
          "id": 479,
          "first_name": "dolly",
          "last_name": "dolly",
          "email": "dolly@hotmail.com",
          "last_logged_in": "2022-06-02 07:25:09",
          "status": "active"
        },
        "invoice_number": "INV-0000127",
        "customer_service_request": {
          "id": 133,
          "service": {
            "id": 91,
            "name": "my domain service",
            "description": "my domain service",
            "image": "https://res.cloudinary.com/saasfa/image/upload/v1652701036/service-6282376bf2855.jpg",
            "subscription_type": "one-off",
            "catalog_status": "active",
            "status": "active",
            "created_at": "2022-05-16T11:37:16.000000Z",
            "updated_at": "2022-05-25T11:56:14.000000Z"
          },
          "customer": {
            "id": 479,
            "first_name": "dolly",
            "last_name": "dolly",
            "email": "dolly@hotmail.com",
            "last_logged_in": "2022-06-02 07:25:09",
            "status": "active"
          },
          "is_recurring": false,
          "recurring_type": "",
          "status": "pending",
          "intake_form": [
            {
              "title": "services ",
              "description": "services "
            }
          ],
          "created_at": "2022-05-31T08:12:43.000000Z"
        },
        "is_paid": false,
        "paid_by": "agency",
        "amount": "100",
        "created_at": "2022-05-31T08:12:43.000000Z"
      },
      {
        "id": 126,
        "customer": {
          "id": 479,
          "first_name": "dolly",
          "last_name": "dolly",
          "email": "dolly@hotmail.com",
          "last_logged_in": "2022-06-02 07:25:09",
          "status": "active"
        },
        "invoice_number": "INV-0000126",
        "customer_service_request": {
          "id": 132,
          "service": {
            "id": 112,
            "name": "hosting",
            "description": "services",
            "image": null,
            "subscription_type": "recurring",
            "catalog_status": "active",
            "status": "active",
            "created_at": "2022-05-31T07:39:44.000000Z",
            "updated_at": "2022-05-31T07:41:56.000000Z"
          },
          "customer": {
            "id": 479,
            "first_name": "dolly",
            "last_name": "dolly",
            "email": "dolly@hotmail.com",
            "last_logged_in": "2022-06-02 07:25:09",
            "status": "active"
          },
          "is_recurring": true,
          "recurring_type": "biannually",
          "status": "pending",
          "intake_form": [
            {
              "title": "hosting",
              "description": "hosting"
            }
          ],
          "created_at": "2022-05-31T08:01:09.000000Z"
        },
        "is_paid": false,
        "paid_by": "agency",
        "amount": "11",
        "created_at": "2022-05-31T08:01:09.000000Z"
      },
      {
        "id": 124,
        "customer": {
          "id": 479,
          "first_name": "dolly",
          "last_name": "dolly",
          "email": "dolly@hotmail.com",
          "last_logged_in": "2022-06-02 07:25:09",
          "status": "active"
        },
        "invoice_number": "INV-0000124",
        "customer_service_request": {
          "id": 130,
          "service": {
            "id": 112,
            "name": "hosting",
            "description": "services",
            "image": null,
            "subscription_type": "recurring",
            "catalog_status": "active",
            "status": "active",
            "created_at": "2022-05-31T07:39:44.000000Z",
            "updated_at": "2022-05-31T07:41:56.000000Z"
          },
          "customer": {
            "id": 479,
            "first_name": "dolly",
            "last_name": "dolly",
            "email": "dolly@hotmail.com",
            "last_logged_in": "2022-06-02 07:25:09",
            "status": "active"
          },
          "is_recurring": true,
          "recurring_type": "biannually",
          "status": "pending",
          "intake_form": [
            {
              "title": "hosting",
              "description": "hosting"
            }
          ],
          "created_at": "2022-05-31T07:42:53.000000Z"
        },
        "is_paid": false,
        "paid_by": "agency",
        "amount": "11",
        "created_at": "2022-05-31T07:42:53.000000Z"
      },
      {
        "id": 123,
        "customer": {
          "id": 412,
          "first_name": "My Agency Tool",
          "last_name": "My Agency Tool name",
          "email": "irfan.mumtaz1@saasfa.com",
          "last_logged_in": "2022-06-01 06:05:22",
          "status": "active"
        },
        "invoice_number": "INV-0000123",
        "customer_service_request": {
          "id": 129,
          "service": {
            "id": 98,
            "name": "developing ",
            "description": "aaaa",
            "image": null,
            "subscription_type": "one-off",
            "catalog_status": "active",
            "status": "active",
            "created_at": "2022-05-24T11:29:49.000000Z",
            "updated_at": "2022-05-27T07:52:22.000000Z"
          },
          "customer": {
            "id": 412,
            "first_name": "My Agency Tool",
            "last_name": "My Agency Tool name",
            "email": "irfan.mumtaz1@saasfa.com",
            "last_logged_in": "2022-06-01 06:05:22",
            "status": "active"
          },
          "is_recurring": false,
          "recurring_type": "",
          "status": "pending",
          "intake_form": [
            {
              "title": "test meh",
              "description": "dasd"
            }
          ],
          "created_at": "2022-05-31T07:38:21.000000Z"
        },
        "is_paid": false,
        "paid_by": "agency",
        "amount": "12",
        "created_at": "2022-05-31T07:38:21.000000Z"
      }
    ],
    "pagination": {
      "total": 43,
      "count": 20,
      "per_page": 20,
      "current_page": 1,
      "total_pages": 3
    },
    "permissions": [
      "access_all"
    ]
  },
  "error": {},
  "success": true,
  "message": "Operation successful"
}